{ 
  "spider": "https://files.zohopublic.com.cn/public/workdrive-public/download/uyv0t678c488189af47bb91dc108484d17431",
  "wallpaper": "http://maoyingshi.cc/api.php",
  "warningText": "【整挺好啊】接口免费，每次打开记得长按主页刷新！",
  "sites": [
    {
      "key": "js豆瓣备用",
      "name": "📛微信公众号┃挺好分享【2023-11-30接口更新】",
      "type": 3,
      "api": "https://codeberg.org/ztha/tvbox/raw/branch/main/js/doubanbf.js",
      "searchable": 1,
      "quickSearch": 1,
      "filterable": 0
    },
    {
      "key": "js豆瓣",
      "name": "📛豆瓣备用┃微信公众号┃挺好专享",
      "type": 3,
      "api": "https://jihulab.com/iduoduo/xduo/-/raw/main/libs/drpy2.js",
      "searchable": 0,
      "quickSearch": 0,
      "filterable": 1,
      "ext": "https://jihulab.com/iduoduo/xduo/-/raw/main/libs/douban.js"
    },
    {
      "key": "YGP",
      "name": "🚀TH┃即将上映",
      "type": 3,
      "api": "csp_YGP",
      "searchable": 0,
      "quickSearch": 0,
      "changeable": 0
    },
    {
      "key": "th_好趣网",
      "name": "📛TH┃好趣直播",
      "type": 3,
      "api": "http://111.67.196.189/tvbox/THTVBox/JS/lib/drpy.min.js",
      "ext": "http://111.67.196.189/tvbox/THTVBox/JS/js/好趣网.js"
    },
    {
      "key": "drpy_js_优酷1",
      "name": "📛TH┃优酷(官源)",
      "type": 3,
      "api": "http://111.67.196.189/tvbox/THTVBox/JS/lib/drpy.min.js",
      "ext": "http://111.67.196.189/tvbox/THTVBox/JS/js/优酷.js"
    },
    {
      "key": "搜狗2",
      "name": "📛TH┃搜狗(官源)",
      "type": 3,
      "api": "http://111.67.196.189/tvbox/THTVBox/JS/lib/drpy.min.js",
      "ext": "http://111.67.196.189/tvbox/THTVBox/JS/js/菜狗.js"
    },
    {
      "key": "腾讯2",
      "name": "📛TH┃腾讯(官源)",
      "type": 3,
      "api": "http://111.67.196.189/tvbox/THTVBox/JS/lib/drpy.min.js",
      "ext": "http://111.67.196.189/tvbox/THTVBox/JS/js/腾云驾雾.js"
    },
    {
      "key": "爱奇异",
      "name": "📛TH┃爱奇艺(官源)",
      "type": 3,
      "api": "http://111.67.196.189/tvbox/THTVBox/JS/lib/drpy.min.js",
      "ext": "http://111.67.196.189/tvbox/THTVBox/JS/js/奇珍异兽.js"
    },
    {
      "key": "th_芒果",
      "name": "📛TH┃芒果(官源)",
      "type": 3,
      "api": "http://111.67.196.189/tvbox/THTVBox/JS/lib/drpy.min.js",
      "ext": "http://111.67.196.189/tvbox/THTVBox/JS/js/百忙无果.js"
    },
    {
      "key": "th_360",
      "name": "📛TH┃360(官源)",
      "type": 3,
      "api": "http://111.67.196.189/tvbox/THTVBox/JS/lib/drpy.min.js",
      "ext": "http://111.67.196.189/tvbox/THTVBox/JS/js/360影视.js"
    }
}